{
  "project_info": {
    "project_number": "173709449592",
    "firebase_url": "https://shout-1478857687055.firebaseio.com",
    "project_id": "shout-1478857687055",
    "storage_bucket": "shout-1478857687055.appspot.com"
  },
  "client": [
    {
      "client_info": {
        "mobilesdk_app_id": "1:173709449592:android:e7d56db9c2daae66",
        "android_client_info": {
          "package_name": "shout.hackathon.shout"
        }
      },
      "oauth_client": [
        {
          "client_id": "173709449592-5opgmc73s2lr2e6mdof2l175bgm9s0lf.apps.googleusercontent.com",
          "client_type": 3
        }
      ],
      "api_key": [
        {
          "current_key": "AIzaSyBR_itpDJi8x3jKWocfFQenNlwGklOFqA4"
        }
      ],
      "services": {
        "analytics_service": {
          "status": 1
        },
        "appinvite_service": {
          "status": 1,
          "other_platform_oauth_client": []
        },
        "ads_service": {
          "status": 2
        }
      }
    }
  ],
  "configuration_version": "1"
}